COMPSCIX 415.2 Homework 5/Midterm
…
## # A tibble: 6 x 4
##   country      year  cases population
##   <chr>       <int>  <int>      <int>
## 1 Afghanistan  1999    745   19987071
## 2 Afghanistan  2000   2666   20595360
## 3 Brazil       1999  37737  172006362
## 4 Brazil       2000  80488  174504898
## 5 China        1999 212258 1272915272
## 6 China        2000 213766 1280428583

2. Create a new column in the diamonds data set called price_per_carat that shows the price of each diamond per carat (hint: divide). Only show me the code, not the output.

mutate(diamonds, price_per_carat=price/carat)

## # A tibble: 53,940 x 11
##    carat cut       color clarity depth table price     x     y     z
##    <dbl> <ord>     <ord> <ord>   <dbl> <dbl> <int> <dbl> <dbl> <dbl>
##  1 0.230 Ideal     E     SI2      61.5  55.0   326  3.95  3.98  2.43
##  2 0.210 Premium   E     SI1      59.8  61.0   326  3.89  3.84  2.31
##  3 0.230 Good      E     VS1      56.9  65.0   327  4.05  4.07  2.31
##  4 0.290 Premium   I     VS2      62.4  58.0   334  4.20  4.23  2.63
##  5 0.310 Good      J     SI2      63.3  58.0   335  4.34  4.35  2.75
##  6 0.240 Very Good J     VVS2     62.8  57.0   336  3.94  3.96  2.48
##  7 0.240 Very Good I     VVS1     62.3  57.0   336  3.95  3.98  2.47
##  8 0.260 Very Good H     SI1      61.9  55.0   337  4.07  4.11  2.53
##  9 0.220 Fair      E     VS2      65.1  61.0   337  3.87  3.78  2.49
## 10 0.230 Very Good H     VS1      59.4  61.0   338  4.00  4.05  2.39
## # ... with 53,930 more rows, and 1 more variable: price_per_carat <dbl>
…
## # A tibble: 5 x 4
##   cut       count_total count_expensive proportion_expensive
##   <ord>           <int>           <int>                <dbl>
## 1 Fair             1610               4              0.00248
## 2 Good             4906              17              0.00347
## 3 Very Good       12082             155              0.0128 
## 4 Premium         13791             173              0.0125 
## 5 Ideal           21551             485              0.0225

Do the results make sense? Why?

diamonds %>% mutate(price_per_carat=price/carat) %>% arrange(price_per_carat)

## # A tibble: 53,940 x 11
##    carat cut       color clarity depth table price     x     y     z
##    <dbl> <ord>     <ord> <ord>   <dbl> <dbl> <int> <dbl> <dbl> <dbl>
##  1 0.430 Premium   H     I1       62.0  59.0   452  4.78  4.83  2.98
##  2 0.320 Premium   E     I1       60.9  58.0   345  4.38  4.42  2.68
##  3 0.310 Good      J     SI2      63.3  58.0   335  4.34  4.35  2.75
##  4 0.330 Ideal     J     SI2      62.4  54.0   366  4.43  4.45  2.77
##  5 0.310 Ideal     J     SI2      62.2  54.0   344  4.35  4.37  2.71
##  6 0.320 Good      D     I1       64.0  54.0   361  4.33  4.36  2.78
##  7 0.300 Good      J     SI1      64.0  55.0   339  4.25  4.28  2.73
##  8 0.310 Very Good J     SI1      59.4  62.0   353  4.39  4.43  2.62
##  9 0.310 Very Good J     SI1      58.1  62.0   353  4.44  4.47  2.59
## 10 0.360 Premium   J     SI1      61.6  60.0   410  4.54  4.58  2.81
## # ... with 53,930 more rows, and 1 more variable: price_per_carat <dbl>

diamonds %>% mutate(price_per_carat=price/carat) %>% arrange(desc(price_per_carat))

## # A tibble: 53,940 x 11
##    carat cut       color clarity depth table price     x     y     z
##    <dbl> <ord>     <ord> <ord>   <dbl> <dbl> <int> <dbl> <dbl> <dbl>
##  1  1.04 Very Good D     IF       61.3  56.0 18542  6.53  6.55  4.01
##  2  1.07 Premium   D     IF       60.9  58.0 18279  6.67  6.57  4.03
##  3  1.03 Ideal     D     IF       62.0  56.0 17590  6.55  6.44  4.03
##  4  1.07 Very Good D     IF       60.9  58.0 18114  6.57  6.67  4.03
##  5  1.02 Very Good D     IF       61.7  59.0 17100  6.42  6.52  3.99
##  6  1.07 Very Good D     IF       59.0  59.0 17909  6.63  6.72  3.94
##  7  1.09 Very Good D     IF       61.7  58.0 18231  6.55  6.65  4.07
##  8  1.00 Ideal     D     IF       60.7  57.0 16469  6.44  6.48  3.92
##  9  1.01 Premium   D     IF       61.6  56.0 16234  6.46  6.43  3.97
## 10  1.00 Very Good D     IF       63.3  59.0 16073  6.37  6.33  4.02
## # ... with 53,930 more rows, and 1 more variable: price_per_carat <dbl>
…
We can group diamonds by color, clarity, and cut and compare average price per carat:

diamonds %>% mutate(price_per_carat=price/carat) %>% group_by(color, clarity, cut) %>% summarize(count=n(), average_price_per_carat=mean(price_per_carat)) %>% arrange(desc(average_price_per_carat))

## # A tibble: 276 x 5
## # Groups:   color, clarity [56]
##    color clarity cut       count average_price_per_carat
##    <ord> <ord>   <ord>     <int>                   <dbl>
##  1 D     IF      Very Good    23                   11347
##  2 D     IF      Good          9                   10877
##  3 D     IF      Premium      10                   10099
##  4 D     IF      Ideal        28                    9034
##  5 E     IF      Premium      27                    5817
##  6 E     IF      Very Good    43                    5706
##  7 D     VVS1    Fair          3                    5690
##  8 F     IF      Very Good    67                    5544
##  9 E     VVS1    Fair          3                    5447
## 10 H     IF      Good          4                    5394
## # ... with 266 more rows
…
This may cause is to be wary of some of the observations with high price per carat.

EDA (6 points)

Take a look at the txhousing data set that is included with the ggplot2 package and answer these questions: ### 1. During what time period is this data from? The data is from years 2000-2015

2. How many cities are represented?

8,602

3. Which city, month and year had the highest number of sales?

txhousing %>% group_by(city, month, year) %>% summarize(total_sales=sum(sales)) %>% arrange(desc(total_sales))

## # A tibble: 8,602 x 4
## # Groups:   city, month [552]
##    city    month  year total_sales
##    <chr>   <int> <int>       <dbl>
##  1 Houston     7  2015        8945
##  2 Houston     6  2006        8628
##  3 Houston     7  2013        8468
##  4 Houston     6  2015        8449
##  5 Houston     5  2013        8439
##  6 Houston     6  2014        8391
##  7 Houston     7  2014        8391
##  8 Houston     8  2014        8167
##  9 Houston     8  2013        8155
## 10 Houston     5  2006        8040
## # ... with 8,592 more rows
…
5. What proportion of sales is missing for each city?

txhousing %>% mutate(missing_sale=is.na(sales)) %>% group_by(city) %>% summarize(missing_sales_proportion=mean(missing_sale))

## # A tibble: 46 x 2
##    city                  missing_sales_proportion
##    <chr>                                    <dbl>
##  1 Abilene                                 0     
##  2 Amarillo                                0     
##  3 Arlington                               0     
##  4 Austin                                  0     
##  5 Bay Area                                0     
##  6 Beaumont                                0     
##  7 Brazoria County                         0.0749
##  8 Brownsville                             0.0107
##  9 Bryan-College Station                   0     
## 10 Collin County                           0     
## # ... with 36 more rows
…
